[
  {
    "name": "Mi configuracion",
    "ip": "192.168.0.1",
    "group": "embratel-services"
  },
  {
    "name": "Mi configuracion",
    "ip": "192.168.0.1",
    "group": "embratel-services"
  },
  {
    "name": "Mi configuracion",
    "ip": "192.168.0.1",
    "group": "embratel-services"
  },
  {
    "name": "Mi configuracion",
    "ip": "192.168.0.1",
    "group": "embratel-services"
  },
  {
    "name": "Mi configuracion",
    "ip": "192.168.0.1",
    "group": "embratel-services"
  }
]